Software/IceBreaker/Blinky/blinky_tb.vcd
$date
	Sat Jan 04 00:11:34 2025
$end
$version
	Icarus Verilog
$end
$timescale
	1ps
$end
$scope module blinky_tb $end
$var parameter 32 ! DURATION $end
$var reg 1 " CLK $end
$scope module UUT $end
$var wire 1 " CLK $end
$var wire 1 # LEDG_N $end
$var wire 1 $ LEDR_N $end
$var wire 8 % data [7:0] $end
$var wire 1 & cc $end
$var wire 1 ' LED5 $end
$var wire 1 ( LED4 $end
$var wire 1 ) LED3 $end
$var wire 1 * LED2 $end
$var wire 1 + LED1 $end
$var wire 1 , HPDL_WR4 $end
$var wire 1 - HPDL_WR3 $end
$var wire 1 . HPDL_WR2 $end
$var wire 1 / HPDL_WR1 $end
$var wire 1 0 HPDL_D6 $end
$var wire 1 1 HPDL_D5 $end
$var wire 1 2 HPDL_D4 $end
$var wire 1 3 HPDL_D3 $end
$var wire 1 4 HPDL_D2 $end
$var wire 1 5 HPDL_D1 $end
$var wire 1 6 HPDL_D0 $end
$var wire 1 7 HPDL_A1 $end
$var wire 1 8 HPDL_A0 $end
$var reg 4 9 address_counter [3:0] $end
$var reg 24 : counter [23:0] $end
$var reg 8 ; i [7:0] $end
$scope module mem_strorage $end
$var wire 1 " clk $end
$var wire 4 < r_addr [3:0] $end
$var wire 1 = r_en $end
$var wire 4 > w_addr [3:0] $end
$var wire 8 ? w_data [7:0] $end
$var wire 1 @ w_en $end
$var parameter 96 A INIT_FILE $end
$var reg 8 B r_data [7:0] $end
$upscope $end
$upscope $end
$upscope $end
$enddefinitions $end
$comment Show the parameter values. $end
$dumpall
b11011010110010101101101010111110110100101101110011010010111010000101110011101000111100001110100 A
b10011100010000 !
$end
#0
$dumpvars
bx B
0@
b0 ?
b0 >
1=
b0 <
b110000 ;
b0 :
b0 9
08
07
x6
x5
x4
x3
x2
x1
x0
1/
1.
1-
0,
0+
0*
0)
0(
0'
0&
bx %
1$
1#
0"
$end
#41667
06
05
04
03
12
11
00
b110000 %
b110000 B
b1 :
b1 9
b1 <
1"
#83334
0"
#125001
16
b10 9
b10 <
b10 :
b110001 %
b110001 B
1"
#166668
0"
#208335
06
15
b110010 %
b110010 B
b11 :
b11 9
b11 <
1"
#250002
0"
#291669
16
b100 9
b100 <
b100 :
b110011 %
b110011 B
1"
#333336
0"
#375003
06
05
14
b110100 %
b110100 B
b101 :
b101 9
b101 <
1"
#416670
0"
#458337
16
b110 9
b110 <
b110 :
b110101 %
b110101 B
1"
#500004
0"
#541671
06
15
b110110 %
b110110 B
b111 :
b111 9
b111 <
1"
#583338
0"
#625005
16
b1000 9
b1000 <
b1000 :
b110111 %
b110111 B
1"
#666672
0"
#708339
06
05
04
13
b111000 %
b111000 B
b1001 :
b1001 9
b1001 <
1"
#750006
0"
#791673
03
b1010 9
b1010 <
b1010 :
b110000 %
b110000 B
1"
#833340
0"
#875007
16
b110001 %
b110001 B
b1011 :
b1011 9
b1011 <
1"
#916674
0"
#958341
06
15
b1100 9
b1100 <
b1100 :
b110010 %
b110010 B
1"
#1000008
0"
#1041675
16
b110011 %
b110011 B
b1101 :
b1101 9
b1101 <
1"
#1083342
0"
#1125009
06
05
14
b1110 9
b1110 <
b1110 :
b110100 %
b110100 B
1"
#1166676
0"
#1208343
16
b110101 %
b110101 B
b1111 :
b1111 9
b1111 <
1"
#1250010
0"
#1291677
06
15
b0 9
b0 <
b10000 :
b110110 %
b110110 B
1"
#1333344
0"
#1375011
05
04
b110000 %
b110000 B
b10001 :
b1 9
b1 <
1"
#1416678
0"
#1458345
16
b10 9
b10 <
b10010 :
b110001 %
b110001 B
1"
#1500012
0"
#1541679
06
15
b110010 %
b110010 B
b10011 :
b11 9
b11 <
1"
#1583346
0"
#1625013
16
b100 9
b100 <
b10100 :
b110011 %
b110011 B
1"
#1666680
0"
#1708347
06
05
14
b110100 %
b110100 B
b10101 :
b101 9
b101 <
1"
#1750014
0"
#1791681
16
b110 9
b110 <
b10110 :
b110101 %
b110101 B
1"
#1833348
0"
#1875015
06
15
b110110 %
b110110 B
b10111 :
b111 9
b111 <
1"
#1916682
0"
#1958349
16
b1000 9
b1000 <
b11000 :
b110111 %
b110111 B
1"
#2000016
0"
#2041683
06
05
04
13
b111000 %
b111000 B
b11001 :
b1001 9
b1001 <
1"
#2083350
0"
#2125017
03
b1010 9
b1010 <
b11010 :
b110000 %
b110000 B
1"
#2166684
0"
#2208351
16
b110001 %
b110001 B
b11011 :
b1011 9
b1011 <
1"
#2250018
0"
#2291685
06
15
b1100 9
b1100 <
b11100 :
b110010 %
b110010 B
1"
#2333352
0"
#2375019
16
b110011 %
b110011 B
b11101 :
b1101 9
b1101 <
1"
#2416686
0"
#2458353
06
05
14
b1110 9
b1110 <
b11110 :
b110100 %
b110100 B
1"
#2500020
0"
#2541687
16
b110101 %
b110101 B
b11111 :
b1111 9
b1111 <
1"
#2583354
0"
#2625021
06
15
b0 9
b0 <
b100000 :
b110110 %
b110110 B
1"
#2666688
0"
#2708355
05
04
b110000 %
b110000 B
b100001 :
b1 9
b1 <
1"
#2750022
0"
#2791689
16
b10 9
b10 <
b100010 :
b110001 %
b110001 B
1"
#2833356
0"
#2875023
06
15
b110010 %
b110010 B
b100011 :
b11 9
b11 <
1"
#2916690
0"
#2958357
16
b100 9
b100 <
b100100 :
b110011 %
b110011 B
1"
#3000024
0"
#3041691
06
05
14
b110100 %
b110100 B
b100101 :
b101 9
b101 <
1"
#3083358
0"
#3125025
16
b110 9
b110 <
b100110 :
b110101 %
b110101 B
1"
#3166692
0"
#3208359
06
15
b110110 %
b110110 B
b100111 :
b111 9
b111 <
1"
#3250026
0"
#3291693
16
b1000 9
b1000 <
b101000 :
b110111 %
b110111 B
1"
#3333360
0"
#3375027
06
05
04
13
b111000 %
b111000 B
b101001 :
b1001 9
b1001 <
1"
#3416694
0"
#3458361
03
b1010 9
b1010 <
b101010 :
b110000 %
b110000 B
1"
#3500028
0"
#3541695
16
b110001 %
b110001 B
b101011 :
b1011 9
b1011 <
1"
#3583362
0"
#3625029
06
15
b1100 9
b1100 <
b101100 :
b110010 %
b110010 B
1"
#3666696
0"
#3708363
16
b110011 %
b110011 B
b101101 :
b1101 9
b1101 <
1"
#3750030
0"
#3791697
06
05
14
b1110 9
b1110 <
b101110 :
b110100 %
b110100 B
1"
#3833364
0"
#3875031
16
b110101 %
b110101 B
b101111 :
b1111 9
b1111 <
1"
#3916698
0"
#3958365
06
15
b0 9
b0 <
b110000 :
b110110 %
b110110 B
1"
#4000032
0"
#4041699
05
04
b110000 %
b110000 B
b110001 :
b1 9
b1 <
1"
#4083366
0"
#4125033
16
b10 9
b10 <
b110010 :
b110001 %
b110001 B
1"
#4166700
0"
#4208367
06
15
b110010 %
b110010 B
b110011 :
b11 9
b11 <
1"
#4250034
0"
#4291701
16
b100 9
b100 <
b110100 :
b110011 %
b110011 B
1"
#4333368
0"
#4375035
06
05
14
b110100 %
b110100 B
b110101 :
b101 9
b101 <
1"
#4416702
0"
#4458369
16
b110 9
b110 <
b110110 :
b110101 %
b110101 B
1"
#4500036
0"
#4541703
06
15
b110110 %
b110110 B
b110111 :
b111 9
b111 <
1"
#4583370
0"
#4625037
16
b1000 9
b1000 <
b111000 :
b110111 %
b110111 B
1"
#4666704
0"
#4708371
06
05
04
13
b111000 %
b111000 B
b111001 :
b1001 9
b1001 <
1"
#4750038
0"
#4791705
03
b1010 9
b1010 <
b111010 :
b110000 %
b110000 B
1"
#4833372
0"
#4875039
16
b110001 %
b110001 B
b111011 :
b1011 9
b1011 <
1"
#4916706
0"
#4958373
06
15
b1100 9
b1100 <
b111100 :
b110010 %
b110010 B
1"
#5000040
0"
#5041707
16
b110011 %
b110011 B
b111101 :
b1101 9
b1101 <
1"
#5083374
0"
#5125041
06
05
14
b1110 9
b1110 <
b111110 :
b110100 %
b110100 B
1"
#5166708
0"
#5208375
16
b110101 %
b110101 B
b111111 :
b1111 9
b1111 <
1"
#5250042
0"
#5291709
06
15
b0 9
b0 <
b1000000 :
b110110 %
b110110 B
1"
#5333376
0"
#5375043
05
04
b110000 %
b110000 B
b1000001 :
b1 9
b1 <
1"
#5416710
0"
#5458377
16
b10 9
b10 <
b1000010 :
b110001 %
b110001 B
1"
#5500044
0"
#5541711
06
15
b110010 %
b110010 B
b1000011 :
b11 9
b11 <
1"
#5583378
0"
#5625045
16
b100 9
b100 <
b1000100 :
b110011 %
b110011 B
1"
#5666712
0"
#5708379
06
05
14
b110100 %
b110100 B
b1000101 :
b101 9
b101 <
1"
#5750046
0"
#5791713
16
b110 9
b110 <
b1000110 :
b110101 %
b110101 B
1"
#5833380
0"
#5875047
06
15
b110110 %
b110110 B
b1000111 :
b111 9
b111 <
1"
#5916714
0"
#5958381
16
b1000 9
b1000 <
b1001000 :
b110111 %
b110111 B
1"
#6000048
0"
#6041715
06
05
04
13
b111000 %
b111000 B
b1001001 :
b1001 9
b1001 <
1"
#6083382
0"
#6125049
03
b1010 9
b1010 <
b1001010 :
b110000 %
b110000 B
1"
#6166716
0"
#6208383
16
b110001 %
b110001 B
b1001011 :
b1011 9
b1011 <
1"
#6250050
0"
#6291717
06
15
b1100 9
b1100 <
b1001100 :
b110010 %
b110010 B
1"
#6333384
0"
#6375051
16
b110011 %
b110011 B
b1001101 :
b1101 9
b1101 <
1"
#6416718
0"
#6458385
06
05
14
b1110 9
b1110 <
b1001110 :
b110100 %
b110100 B
1"
#6500052
0"
#6541719
16
b110101 %
b110101 B
b1001111 :
b1111 9
b1111 <
1"
#6583386
0"
#6625053
06
15
b0 9
b0 <
b1010000 :
b110110 %
b110110 B
1"
#6666720
0"
#6708387
05
04
b110000 %
b110000 B
b1010001 :
b1 9
b1 <
1"
#6750054
0"
#6791721
16
b10 9
b10 <
b1010010 :
b110001 %
b110001 B
1"
#6833388
0"
#6875055
06
15
b110010 %
b110010 B
b1010011 :
b11 9
b11 <
1"
#6916722
0"
#6958389
16
b100 9
b100 <
b1010100 :
b110011 %
b110011 B
1"
#7000056
0"
#7041723
06
05
14
b110100 %
b110100 B
b1010101 :
b101 9
b101 <
1"
#7083390
0"
#7125057
16
b110 9
b110 <
b1010110 :
b110101 %
b110101 B
1"
#7166724
0"
#7208391
06
15
b110110 %
b110110 B
b1010111 :
b111 9
b111 <
1"
#7250058
0"
#7291725
16
b1000 9
b1000 <
b1011000 :
b110111 %
b110111 B
1"
#7333392
0"
#7375059
06
05
04
13
b111000 %
b111000 B
b1011001 :
b1001 9
b1001 <
1"
#7416726
0"
#7458393
03
b1010 9
b1010 <
b1011010 :
b110000 %
b110000 B
1"
#7500060
0"
#7541727
16
b110001 %
b110001 B
b1011011 :
b1011 9
b1011 <
1"
#7583394
0"
#7625061
06
15
b1100 9
b1100 <
b1011100 :
b110010 %
b110010 B
1"
#7666728
0"
#7708395
16
b110011 %
b110011 B
b1011101 :
b1101 9
b1101 <
1"
#7750062
0"
#7791729
06
05
14
b1110 9
b1110 <
b1011110 :
b110100 %
b110100 B
1"
#7833396
0"
#7875063
16
b110101 %
b110101 B
b1011111 :
b1111 9
b1111 <
1"
#7916730
0"
#7958397
06
15
b0 9
b0 <
b1100000 :
b110110 %
b110110 B
1"
#8000064
0"
#8041731
05
04
b110000 %
b110000 B
b1100001 :
b1 9
b1 <
1"
#8083398
0"
#8125065
16
b10 9
b10 <
b1100010 :
b110001 %
b110001 B
1"
#8166732
0"
#8208399
06
15
b110010 %
b110010 B
b1100011 :
b11 9
b11 <
1"
#8250066
0"
#8291733
16
b100 9
b100 <
b1100100 :
b110011 %
b110011 B
1"
#8333400
0"
#8375067
06
05
14
b110100 %
b110100 B
b1100101 :
b101 9
b101 <
1"
#8416734
0"
#8458401
16
b110 9
b110 <
b1100110 :
b110101 %
b110101 B
1"
#8500068
0"
#8541735
06
15
b110110 %
b110110 B
b1100111 :
b111 9
b111 <
1"
#8583402
0"
#8625069
16
b1000 9
b1000 <
b1101000 :
b110111 %
b110111 B
1"
#8666736
0"
#8708403
06
05
04
13
b111000 %
b111000 B
b1101001 :
b1001 9
b1001 <
1"
#8750070
0"
#8791737
03
b1010 9
b1010 <
b1101010 :
b110000 %
b110000 B
1"
#8833404
0"
#8875071
16
b110001 %
b110001 B
b1101011 :
b1011 9
b1011 <
1"
#8916738
0"
#8958405
06
15
b1100 9
b1100 <
b1101100 :
b110010 %
b110010 B
1"
#9000072
0"
#9041739
16
b110011 %
b110011 B
b1101101 :
b1101 9
b1101 <
1"
#9083406
0"
#9125073
06
05
14
b1110 9
b1110 <
b1101110 :
b110100 %
b110100 B
1"
#9166740
0"
#9208407
16
b110101 %
b110101 B
b1101111 :
b1111 9
b1111 <
1"
#9250074
0"
#9291741
06
15
b0 9
b0 <
b1110000 :
b110110 %
b110110 B
1"
#9333408
0"
#9375075
05
04
b110000 %
b110000 B
b1110001 :
b1 9
b1 <
1"
#9416742
0"
#9458409
16
b10 9
b10 <
b1110010 :
b110001 %
b110001 B
1"
#9500076
0"
#9541743
06
15
b110010 %
b110010 B
b1110011 :
b11 9
b11 <
1"
#9583410
0"
#9625077
16
b100 9
b100 <
b1110100 :
b110011 %
b110011 B
1"
#9666744
0"
#9708411
06
05
14
b110100 %
b110100 B
b1110101 :
b101 9
b101 <
1"
#9750078
0"
#9791745
16
b110 9
b110 <
b1110110 :
b110101 %
b110101 B
1"
#9833412
0"
#9875079
06
15
b110110 %
b110110 B
b1110111 :
b111 9
b111 <
1"
#9916746
0"
#9958413
16
b1000 9
b1000 <
b1111000 :
b110111 %
b110111 B
1"
